[gd_resource type="ShaderMaterial" load_steps=2 format=3 uid="uid://bpnac6d7buech"]

[sub_resource type="Shader" id="Shader_p2e3u"]
code = "// NOTE: Shader automatically converted from Godot Engine 4.2.beta2's StandardMaterial3D.

shader_type spatial;
render_mode blend_mix,depth_draw_opaque,cull_back,diffuse_burley,specular_schlick_ggx;
uniform vec4 albedo : source_color;
uniform float color_multiplier : hint_range(0, 3) = 1;
uniform float white_blend : hint_range(0, 1) = 1;




void fragment() {
	vec2 base_uv = UV;
	ALBEDO = mix(albedo.rgb * color_multiplier, vec3(1, 1, 1) * clamp(color_multiplier, 1, 3), white_blend);
	EMISSION = mix(albedo.rgb * color_multiplier, vec3(1, 1, 1) * clamp(color_multiplier, 1, 3), white_blend);
}
"

[resource]
render_priority = 0
shader = SubResource("Shader_p2e3u")
shader_parameter/albedo = Color(0.19, 0.62, 1, 1)
shader_parameter/color_multiplier = 1.0
shader_parameter/white_blend = 1.0
